\relax 
\providecommand\hyper@newdestlabel[2]{}
\providecommand\HyperFirstAtBeginDocument{\AtBeginDocument}
\HyperFirstAtBeginDocument{\ifx\hyper@anchor\@undefined
\global\let\oldcontentsline\contentsline
\gdef\contentsline#1#2#3#4{\oldcontentsline{#1}{#2}{#3}}
\global\let\oldnewlabel\newlabel
\gdef\newlabel#1#2{\newlabelxx{#1}#2}
\gdef\newlabelxx#1#2#3#4#5#6{\oldnewlabel{#1}{{#2}{#3}}}
\AtEndDocument{\ifx\hyper@anchor\@undefined
\let\contentsline\oldcontentsline
\let\newlabel\oldnewlabel
\fi}
\fi}
\global\let\hyper@last\relax 
\gdef\HyperFirstAtBeginDocument#1{#1}
\providecommand\HyField@AuxAddToFields[1]{}
\providecommand\HyField@AuxAddToCoFields[2]{}
\citation{lucatelli2019}
\citation{claudia2019}
\citation{fernanda}
\citation{claudia2019}
\citation{fernanda}
\bibstyle{apa}
\bibdata{references}
\bibcite{ferrari2015}{{1}{2015}{{Ferrari et~al.}}{{}}}
\bibcite{lucatelli2019}{{2}{2019}{{Lucatelli and Ferrari}}{{}}}
\bibcite{claudia2019}{{3}{2019}{{Oliveira\text  {\ et al}}}{{}}}
\bibcite{fernanda}{{4}{2020}{{Roman-Oliveira et~al.}}{{}}}
\citation{*}
\newlabel{fig:kurosculatingcircles}{{1}{1}{}{Doc-Start}{}}
\@writefile{snm}{\beamer@slide {fig:kurosculatingcircles}{1}}
\newlabel{fig:examplesinglecomponent}{{1}{1}{}{Doc-Start}{}}
\@writefile{snm}{\beamer@slide {fig:examplesinglecomponent}{1}}
\newlabel{fig:examplelenticular}{{1}{1}{}{Doc-Start}{}}
\@writefile{snm}{\beamer@slide {fig:examplelenticular}{1}}
\newlabel{fig:jelly}{{2}{1}{}{Doc-Start}{}}
\@writefile{snm}{\beamer@slide {fig:jelly}{1}}
\newlabel{fig:pgc0009359rkurcomps3}{{1}{1}{}{Doc-Start}{}}
\@writefile{snm}{\beamer@slide {fig:pgc0009359rkurcomps3}{1}}
\newlabel{fig:pgc0009359rkurcomps3}{{1}{1}{}{Doc-Start}{}}
\@writefile{snm}{\beamer@slide {fig:pgc0009359rkurcomps3}{1}}
\newlabel{fig:plotareakurvaturec1h}{{3}{1}{}{Doc-Start}{}}
\@writefile{snm}{\beamer@slide {fig:plotareakurvaturec1h}{1}}
\@writefile{nav}{\headcommand {\beamer@sectionpages {1}{0}}}
\@writefile{nav}{\headcommand {\beamer@subsectionpages {1}{0}}}
\@writefile{nav}{\headcommand {\sectionentry {1}{\translate  {References}}{1}{\translate  {References}}{0}}}
\@writefile{nav}{\headcommand {\slideentry {1}{0}{0}{1/1}{}{0}}}
\@writefile{nav}{\headcommand {\beamer@framepages {1}{1}}}
\@writefile{nav}{\headcommand {\beamer@partpages {1}{1}}}
\@writefile{nav}{\headcommand {\beamer@subsectionpages {1}{1}}}
\@writefile{nav}{\headcommand {\beamer@sectionpages {1}{1}}}
\@writefile{nav}{\headcommand {\beamer@documentpages {1}}}
\@writefile{nav}{\headcommand {\gdef \inserttotalframenumber {1}}}
